<?xml version="1.0" encoding="iso-8859-1"?>
<!-- Generator: Adobe Illustrator 19.0.0, SVG Export Plug-In . SVG Version: 6.00 Build 0)  -->
<svg version="1.1" id="Capa_1" xmlns="http://www.w3.org/2000/svg" xmlns:xlink="http://www.w3.org/1999/xlink" x="0px" y="0px"
	 viewBox="0 0 496 496" style="enable-background:new 0 0 496 496;" xml:space="preserve">
<rect x="184" y="8" style="fill:#193441;" width="128" height="48"/>
<path d="M312,64H184c-4.8,0-8-3.2-8-8V8c0-4.8,3.2-8,8-8h128c4.8,0,8,3.2,8,8v48C320,60.8,316.8,64,312,64z M192,48h112V16H192V48z"
	/>
<polyline style="fill:#193441;" points="160,104 112,56 48,120 88,160 "/>
<path d="M82.4,165.6l-40-40c-3.2-3.2-3.2-8,0-11.2l64-64c3.2-3.2,8-3.2,11.2,0l48,48l-11.2,11.2L112,67.2L59.2,120l34.4,34.4
	L82.4,165.6z"/>
<polyline style="fill:#193441;" points="336,104 384,56 448,120 408,160 "/>
<path d="M413.6,165.6l-11.2-11.2l34.4-34.4L384,67.2l-42.4,42.4l-11.2-11.2l48-48c3.2-3.2,8-3.2,11.2,0l64,64c3.2,3.2,3.2,8,0,11.2
	L413.6,165.6z"/>
<circle style="fill:#3E606F;" cx="248" cy="288" r="200"/>
<path d="M248,496c-115.2,0-208-92.8-208-208S132.8,80,248,80s208,92.8,208,208S363.2,496,248,496z M248,96C141.6,96,56,181.6,56,288
	s85.6,192,192,192s192-85.6,192-192C440,182.4,353.6,96,248,96z"/>
<circle style="fill:#91AAB4;" cx="248" cy="288" r="168"/>
<path d="M248,464c-97.6,0-176-78.4-176-176s78.4-176,176-176s176,78.4,176,176C424,384.8,344.8,464,248,464z M248,128
	c-88,0-160,72-160,160s72,160,160,160s160-72,160-160S336,128,248,128z"/>
<path d="M272,88h-16V64h-16v24h-16V56c0-4.8,3.2-8,8-8h32c4.8,0,8,3.2,8,8V88z"/>
<rect x="168" y="184" style="fill:#CBDBD7;" width="160" height="80"/>
<path d="M328,272H168c-4.8,0-8-3.2-8-8v-80c0-4.8,3.2-8,8-8h160c4.8,0,8,3.2,8,8v80C336,268.8,332.8,272,328,272z M176,256h144v-64
	H176V256z"/>
<rect x="168" y="296" style="fill:#CBDBD7;" width="32" height="80"/>
<path d="M200,384h-32c-4.8,0-8-3.2-8-8v-80c0-4.8,3.2-8,8-8h32c4.8,0,8,3.2,8,8v80C208,380.8,204.8,384,200,384z M176,368h16v-64
	h-16V368z"/>
<rect x="232" y="296" style="fill:#CBDBD7;" width="32" height="80"/>
<path d="M264,384h-32c-4.8,0-8-3.2-8-8v-80c0-4.8,3.2-8,8-8h32c4.8,0,8,3.2,8,8v80C272,380.8,268.8,384,264,384z M240,368h16v-64
	h-16V368z"/>
<rect x="296" y="296" style="fill:#CBDBD7;" width="32" height="80"/>
<path d="M328,384h-32c-4.8,0-8-3.2-8-8v-80c0-4.8,3.2-8,8-8h32c4.8,0,8,3.2,8,8v80C336,380.8,332.8,384,328,384z M304,368h16v-64
	h-16V368z"/>
<rect x="168" y="320" width="32" height="16"/>
<rect x="232" y="320" width="32" height="16"/>
<rect x="296" y="320" width="32" height="16"/>
<g>
</g>
<g>
</g>
<g>
</g>
<g>
</g>
<g>
</g>
<g>
</g>
<g>
</g>
<g>
</g>
<g>
</g>
<g>
</g>
<g>
</g>
<g>
</g>
<g>
</g>
<g>
</g>
<g>
</g>
</svg>
